{
  "head": {
    "vars": [ "p" , "o" ]
  } ,
  "results": {
    "bindings": [
      {
        "p": { "type": "uri" , "value": "http://www.euprava.poverenik.gov.rs/predicate/naziv_organa" } ,
        "o": { "type": "literal" , "datatype": "file:///C:/Users/Snjezana%20Simic/Documents/GitHub/xml-projekat/Project/Poverenik/Backend/src/main/resources/static/documents/string" , "value": "Вишег суда у Новом Саду\n\t\t\t" }
      } ,
      {
        "p": { "type": "uri" , "value": "http://www.euprava.poverenik.gov.rs/predicate/ime_i_prezime_podnosioca" } ,
        "o": { "type": "literal" , "datatype": "file:///C:/Users/Snjezana%20Simic/Documents/GitHub/xml-projekat/Project/Poverenik/Backend/src/main/resources/static/documents/string" , "value": "Пера Перић" }
      } ,
      {
        "p": { "type": "uri" , "value": "http://www.euprava.poverenik.gov.rs/predicate/datum_zalbe" } ,
        "o": { "type": "literal" , "datatype": "file:///C:/Users/Snjezana%20Simic/Documents/GitHub/xml-projekat/Project/Poverenik/Backend/src/main/resources/static/documents/TDatum" , "value": "\n\t\t\t\t27\n\t\t\t\t11\n\t\t\t\t2019\n\t\t\t" }
      } ,
      {
        "p": { "type": "uri" , "value": "http://www.euprava.poverenik.gov.rs/predicate/sporni_dio" } ,
        "o": { "type": "literal" , "datatype": "file:///C:/Users/Snjezana%20Simic/Documents/GitHub/xml-projekat/Project/Poverenik/Backend/src/main/resources/static/documents/string" , "value": "\n\t\t\tкојим се захтев одбија на основу жалбе\n\t\t\t" }
      } ,
      {
        "p": { "type": "uri" , "value": "http://www.euprava.poverenik.gov.rs/predicate/datum_resenja" } ,
        "o": { "type": "literal" , "datatype": "file:///C:/Users/Snjezana%20Simic/Documents/GitHub/xml-projekat/Project/Poverenik/Backend/src/main/resources/static/documents/TDatum" , "value": "\n\t\t\t\t25\n\t\t\t\t11\n\t\t\t\t2019\n\t\t\t" }
      } ,
      {
        "p": { "type": "uri" , "value": "http://www.euprava.poverenik.gov.rs/predicate/broj_resenja" } ,
        "o": { "type": "literal" , "datatype": "file:///C:/Users/Snjezana%20Simic/Documents/GitHub/xml-projekat/Project/Poverenik/Backend/src/main/resources/static/documents/string" , "value": " RJ-1-555\n\t\t\t" }
      } ,
      {
        "p": { "type": "uri" , "value": "http://www.euprava.poverenik.gov.rs/predicate/adresa_zalioca" } ,
        "o": { "type": "literal" , "datatype": "file:///C:/Users/Snjezana%20Simic/Documents/GitHub/xml-projekat/Project/Poverenik/Backend/src/main/resources/static/documents/TAdresa" , "value": "\n\t\t\t\t\tНови Сад\n\t\t\t\t\tФрушкогорска\n\t\t\t\t\t1\n\t\t\t\t" }
      } ,
      {
        "p": { "type": "uri" , "value": "http://www.euprava.poverenik.gov.rs/predicate/prezime_zalioca" } ,
        "o": { "type": "literal" , "datatype": "file:///C:/Users/Snjezana%20Simic/Documents/GitHub/xml-projekat/Project/Poverenik/Backend/src/main/resources/static/documents/string" , "value": "Перић\n\t\t\t\t" }
      } ,
      {
        "p": { "type": "uri" , "value": "http://www.euprava.poverenik.gov.rs/predicate/ime_zalioca" } ,
        "o": { "type": "literal" , "datatype": "file:///C:/Users/Snjezana%20Simic/Documents/GitHub/xml-projekat/Project/Poverenik/Backend/src/main/resources/static/documents/string" , "value": " Пера\n\t\t\t\t" }
      }
    ]
  }
}
